Exploring the BRFSS data
…
Checking the frame shape (to see how many variables and rows we have):

dim(brfss2013)

## [1] 491775    330

Counting respondents by state to realize that states data is more or less representative

brfss2013 %>%
  group_by(X_state) %>%
  summarise(respondents_in_state_number=n()) %>%
  arrange(respondents_in_state_number)

## # A tibble: 55 x 2
##    X_state              respondents_in_state_number
##    <fct>                                      <int>
##  1 0                                              1
##  2 80                                             1
##  3 Guam                                        1897
##  4 Arizona                                     4253
##  5 Alaska                                      4578
##  6 District of Columbia                        4931
##  7 Nevada                                      5101
##  8 Delaware                                    5206
##  9 Louisiana                                   5215
## 10 Arkansas                                    5268
## # ... with 45 more rows

Concluding that states 0 and 80 are - sampling errors, excluding them

brfss2013 <- brfss2013 %>% filter(brfss2013$X_state != "0" & brfss2013$X_state != "80")

Checking that data remained is correct and includes only valid states or territories

brfss2013 %>%
  group_by(X_state) %>%
  summarise(respondents_in_state_number=n()) %>%
  arrange(respondents_in_state_number)

## # A tibble: 53 x 2
##    X_state              respondents_in_state_number
##    <fct>                                      <int>
##  1 Guam                                        1897
##  2 Arizona                                     4253
##  3 Alaska                                      4578
##  4 District of Columbia                        4931
##  5 Nevada                                      5101
##  6 Delaware                                    5206
##  7 Louisiana                                   5215
##  8 Arkansas                                    5268
##  9 Illinois                                    5608
## 10 Idaho                                       5630
## # ... with 43 more rows
…
